Peta Dunia dengan Julia – BlogKu
…
raster[X(Near(77.1025)), Y(Near(28.7041))]

0x3f

raster[X(Near(77.1025)), Y(Near(28.7041))] |> Int

63

Shapefiles

Kita akan melakukan pengolahan spahefile untuk analisis, croping maupun statistik. Kita akan menggunakan shapefile dari: https://github.com/wri/wri-bounds

shp = Shapefile.Table("/Users/chakraroy/Documents/CharObsNote/20_Qmd_Notes/BlogKu/data/world_shapefile/in_primary_countries.shp") |> DataFrame

193×29 DataFrame
 Row │ geometry               ADM0_A3  abbrev   continent      formal_nam      ⋯
     │ Polygon                String?  String?  String?        String?         ⋯
─────┼──────────────────────────────────────────────────────────────────────────
   1 │ Polygon(1530 Points)   AFG      Afg.     Asia           Islamic State o ⋯
   2 │ Polygon(1642 Points)   AGO      Ang.     Africa         People's Republ
   3 │ Polygon(554 Points)    ALB      Alb.     Europe         Republic of Alb
   4 │ Polygon(51 Points)     AND      And.     Europe         Principality of
   5 │ Polygon(796 Points)    ARE      U.A.E.   Asia           United Arab Emi ⋯
   6 │ Polygon(4696 Points)   ARG      Arg.     South America  Argentine Repub
   7 │ Polygon(433 Points)    ARM      Arm.     Asia           Republic of Arm
   8 │ Polygon(108 Points)    ATG      Ant.B.   North America  Antigua and Bar
  ⋮  │           ⋮               ⋮        ⋮           ⋮                        ⋱
 187 │ Polygon(4166 Points)   VNM      Viet.    Asia           Socialist Repub ⋯
 188 │ Polygon(1015 Points)   VUT      Van.     Oceania        Republic of Van
 189 │ Polygon(132 Points)    WSM      Samoa    Oceania        Independent Sta
 190 │ Polygon(1027 Points)   YEM      Yem.     Asia           Republic of Yem
 191 │ Polygon(2207 Points)   ZAF      S.Af.    Africa         Republic of Sou ⋯
 192 │ Polygon(1508 Points)   ZMB      Zambia   Africa         Republic of Zam
 193 │ Polygon(766 Points)    ZWE      Zimb.    Africa         Republic of Zim
                                                 25 columns and 178 rows omitted

Untuk membersihkan datanya, kita bisa melakukan remove setiap non complit data atau data yang hilang (missing data)

shp = dropmissing(shp)

192×29 DataFrame
 Row │ geometry               ADM0_A3  abbrev   continent      formal_nam      ⋯
     │ Polygon                String   String   String         String          ⋯
─────┼──────────────────────────────────────────────────────────────────────────
   1 │ Polygon(1530 Points)   AFG      Afg.     Asia           Islamic State o ⋯
   2 │ Polygon(1642 Points)   AGO      Ang.     Africa         People's Republ
   3 │ Polygon(554 Points)    ALB      Alb.     Europe         Republic of Alb
   4 │ Polygon(51 Points)     AND      And.     Europe         Principality of
   5 │ Polygon(796 Points)    ARE      U.A.E.   Asia           United Arab Emi ⋯
   6 │ Polygon(4696 Points)   ARG      Arg.     South America  Argentine Repub
   7 │ Polygon(433 Points)    ARM      Arm.     Asia           Republic of Arm
   8 │ Polygon(108 Points)    ATG      Ant.B.   North America  Antigua and Bar
  ⋮  │           ⋮               ⋮        ⋮           ⋮                        ⋱
 186 │ Polygon(4166 Points)   VNM      Viet.    Asia           Socialist Repub ⋯
 187 │ Polygon(1015 Points)   VUT      Van.     Oceania        Republic of Van
 188 │ Polygon(132 Points)    WSM      Samoa    Oceania        Independent Sta
 189 │ Polygon(1027 Points)   YEM      Yem.     Asia           Republic of Yem
 190 │ Polygon(2207 Points)   ZAF      S.Af.    Africa         Republic of Sou ⋯
 191 │ Polygon(1508 Points)   ZMB      Zambia   Africa         Republic of Zam
 192 │ Polygon(766 Points)    ZWE      Zimb.    Africa         Republic of Zim
                                                 25 columns and 177 rows omitted
…
shp.sol = Int.(sol_by_country);

sort(shp, :sol, rev=true)

192×30 DataFrame
 Row │ geometry               ADM0_A3  abbrev   continent                forma ⋯
     │ Polygon                String   String   String                   Strin ⋯
─────┼──────────────────────────────────────────────────────────────────────────
   1 │ Polygon(36018 Points)  USA      U.S.A.   North America            Unite ⋯
   2 │ Polygon(14262 Points)  CHN      China    Asia                     Peopl
   3 │ Polygon(36331 Points)  RUS      Rus.     Europe                   Russi
   4 │ Polygon(8542 Points)   IND      India    Asia                     Repub
   5 │ Polygon(11116 Points)  BRA      Brazil   South America            Feder ⋯
   6 │ Polygon(68156 Points)  CAN      Can.     North America            Canad
   7 │ Polygon(2726 Points)   IRN      Iran     Asia                     Islam
   8 │ Polygon(3640 Points)   TUR      Tur.     Asia                     Repub
  ⋮  │           ⋮               ⋮        ⋮                ⋮                   ⋱
 186 │ Polygon(254 Points)    FSM      F.S.M.   Oceania                  Feder ⋯
 187 │ Polygon(12 Points)     MCO      Mco.     Europe                   Princ
 188 │ Polygon(9 Points)      NRU      Nauru    Oceania                  Repub
 189 │ Polygon(709 Points)    KIR      Kir.     Oceania                  Repub
 190 │ Polygon(1418 Points)   MDV      Mald.    Seven seas (open ocean)  Repub ⋯
 191 │ Polygon(69 Points)     TUV      Tuv.     Oceania                  Tuval
 192 │ Polygon(211 Points)    MHL      M. Is.   Oceania                  Repub
                                                 26 columns and 177 rows omitted
…
